{
    "dwarvenLore": {
        "name": "Dwarven Lore",
        "description": "You eagerly absorbed the old stories and traditions of your ancestors, your gods, and your people, studying in subjects and techniques passed down for generation upon generation.\n\nYou gain the trained proficiency rank in Crafting and Religion. If you would automatically become trained in one of those skills (from your background or class, for example), you instead become trained in a skill of your choice. You also become trained in Dwarven Lore.",
        "traits": ["dwarf"],
        "effects": [
            {
                "type": "becomeProficient",
                "level": "trained",
                "skills": [{
                    "base": "lore",
                    "id": "loreDwarven",
                    "name": "Dwarven Lore"
                }]
            },
            {
                "type": "alternative",
                "effect1": {
                    "type": "becomeProficient",
                    "level": "trained",
                    "skills": ["crafting"]
                },
                "effect2": {
                    "type": "becomeProficientChoice",
                    "level": "trained"
                }
            },
            {
                "type": "alternative",
                "effect1": {
                    "type": "becomeProficient",
                    "level": "trained",
                    "skills": ["religion"]
                },
                "effect2": {
                    "type": "becomeProficientChoice",
                    "level": "trained"
                }
            }
        ]
    },
    "studentOfTheCanon": {
        "name": "Student of the Canon",
        "description": "You’ve researched many faiths enough to recognize notions about them that are unlikely to be true. If you roll a critical failure at a Religion check to Decipher Writing of a religious nature or to Recall Knowledge about the tenets of faiths, you get a failure instead. When attempting to Recall Knowledge about the tenets of your own faith, if you roll a failure, you get a success instead, and if you roll a success, you get a critical success instead.",
        "traits": ["general", "skill"]
    }
}